matrix_mult/Multi MAC/tb_toplevel_ver2.vcd
$date
	Tue Mar 18 18:00:36 2025
$end
$version
	Icarus Verilog
$end
$timescale
	1ps
$end
$scope module tb_toplevel_ver2 $end
$var wire 1 ! systolic_finish $end
$var wire 64 " outputB [63:0] $end
$var wire 64 # outputA [63:0] $end
$var wire 64 $ out [63:0] $end
$var wire 1 % accumulator_done $end
$var reg 1 & clk $end
$var reg 16 ' counter [15:0] $end
$var reg 16 ( counter_A [15:0] $end
$var reg 16 ) counter_B [15:0] $end
$var reg 16 * counter_col [15:0] $end
$var reg 16 + counter_row [15:0] $end
$var reg 1 , en $end
$var reg 16 - flag [15:0] $end
$var reg 1 . reset_acc $end
$var reg 1 / rst_n $end
$var integer 32 0 f [31:0] $end
$scope module RAM1_inst_A $end
$var wire 1 & clk $end
$var wire 16 1 counter_A [15:0] $end
$var reg 64 2 outputA [63:0] $end
$upscope $end
$scope module RAM1_inst_B $end
$var wire 1 & clk $end
$var wire 16 3 counter_B [15:0] $end
$var reg 64 4 outputB [63:0] $end
$upscope $end
$scope module top_inst $end
$var wire 1 & clk $end
$var wire 1 , en $end
$var wire 64 5 input_n [63:0] $end
$var wire 64 6 input_w [63:0] $end
$var wire 1 . reset_acc $end
$var wire 1 / rst_n $end
$var wire 1 ! systolic_finish $end
$var wire 16 7 out_mux2_w [15:0] $end
$var wire 16 8 out_mux1_n [15:0] $end
$var wire 16 9 out_mux0_w [15:0] $end
$var wire 16 : out_mux0_n [15:0] $end
$var wire 64 ; out [63:0] $end
$var wire 2 < mux_reset_west [1:0] $end
$var wire 2 = mux_reset_north [1:0] $end
$var wire 1 % accumulator_done $end
$scope module control_mux_north $end
$var wire 1 & clk $end
$var wire 1 , en $end
$var wire 1 / rst_n $end
$var wire 2 > mux_reset [1:0] $end
$var reg 4 ? counter [3:0] $end
$upscope $end
$scope module control_mux_west $end
$var wire 1 & clk $end
$var wire 1 , en $end
$var wire 1 / rst_n $end
$var wire 2 @ mux_reset [1:0] $end
$var reg 4 A counter [3:0] $end
$upscope $end
$scope module mac_0 $end
$var wire 1 & clk $end
$var wire 1 , en $end
$var wire 1 . reset_acc $end
$var wire 1 / rst_n $end
$var wire 1 ! systolic_finish $end
$var wire 64 B out_systolic [63:0] $end
$var wire 64 C out [63:0] $end
$var wire 16 D in_west2 [15:0] $end
$var wire 16 E in_west0 [15:0] $end
$var wire 16 F in_north1 [15:0] $end
$var wire 16 G in_north0 [15:0] $end
$var wire 1 % accumulator_done $end
$scope module acc $end
$var wire 1 & clk $end
$var wire 1 . rst_n $end
$var wire 1 ! systolic_done $end
$var wire 64 H in [63:0] $end
$var reg 1 % accumulator_done $end
$var reg 7 I counter [6:0] $end
$var reg 64 J out [63:0] $end
$upscope $end
$scope module systolic $end
$var wire 1 & clk $end
$var wire 1 , en $end
$var wire 1 / rst_n $end
$var wire 16 K result3 [15:0] $end
$var wire 16 L result2 [15:0] $end
$var wire 16 M result1 [15:0] $end
$var wire 16 N result0 [15:0] $end
$var wire 16 O out_south3 [15:0] $end
$var wire 16 P out_south2 [15:0] $end
$var wire 16 Q out_south1 [15:0] $end
$var wire 16 R out_south0 [15:0] $end
$var wire 16 S out_east3 [15:0] $end
$var wire 16 T out_east2 [15:0] $end
$var wire 16 U out_east1 [15:0] $end
$var wire 16 V out_east0 [15:0] $end
$var wire 64 W out [63:0] $end
$var wire 16 X in_west2 [15:0] $end
$var wire 16 Y in_west0 [15:0] $end
$var wire 16 Z in_north1 [15:0] $end
$var wire 16 [ in_north0 [15:0] $end
$var reg 3 \ count [2:0] $end
$var reg 1 ! done $end
$scope module pe0 $end
$var wire 1 & clk $end
$var wire 1 / rst_n $end
$var wire 16 ] temp_acc [15:0] $end
$var wire 32 ^ mult_result [31:0] $end
$var wire 16 _ in_west [15:0] $end
$var wire 16 ` in_north [15:0] $end
$var wire 32 a add_result [31:0] $end
$var reg 16 b out_east [15:0] $end
$var reg 16 c out_south [15:0] $end
$var reg 16 d result [15:0] $end
$scope module saturation_block $end
$var wire 1 & clk $end
$var wire 32 e in [31:0] $end
$var wire 1 / rst_n $end
$var wire 2 f temp_selector [1:0] $end
$var wire 2 g selector [1:0] $end
$var wire 16 h out [15:0] $end
$scope module reg_0 $end
$var wire 1 & clk $end
$var wire 2 i in [1:0] $end
$var wire 1 / rst_n $end
$var reg 2 j out [1:0] $end
$upscope $end
$upscope $end
$upscope $end
$scope module pe1 $end
$var wire 1 & clk $end
$var wire 16 k in_west [15:0] $end
$var wire 1 / rst_n $end
$var wire 16 l temp_acc [15:0] $end
$var wire 32 m mult_result [31:0] $end
$var wire 16 n in_north [15:0] $end
$var wire 32 o add_result [31:0] $end
$var reg 16 p out_east [15:0] $end
$var reg 16 q out_south [15:0] $end
$var reg 16 r result [15:0] $end
$scope module saturation_block $end
$var wire 1 & clk $end
$var wire 32 s in [31:0] $end
$var wire 1 / rst_n $end
$var wire 2 t temp_selector [1:0] $end
$var wire 2 u selector [1:0] $end
$var wire 16 v out [15:0] $end
$scope module reg_0 $end
$var wire 1 & clk $end
$var wire 2 w in [1:0] $end
$var wire 1 / rst_n $end
$var reg 2 x out [1:0] $end
$upscope $end
$upscope $end
$upscope $end
$scope module pe2 $end
$var wire 1 & clk $end
$var wire 16 y in_north [15:0] $end
$var wire 1 / rst_n $end
$var wire 16 z temp_acc [15:0] $end
$var wire 32 { mult_result [31:0] $end
$var wire 16 | in_west [15:0] $end
$var wire 32 } add_result [31:0] $end
$var reg 16 ~ out_east [15:0] $end
$var reg 16 !" out_south [15:0] $end
$var reg 16 "" result [15:0] $end
$scope module saturation_block $end
$var wire 1 & clk $end
$var wire 32 #" in [31:0] $end
$var wire 1 / rst_n $end
$var wire 2 $" temp_selector [1:0] $end
$var wire 2 %" selector [1:0] $end
$var wire 16 &" out [15:0] $end
$scope module reg_0 $end
$var wire 1 & clk $end
$var wire 2 '" in [1:0] $end
$var wire 1 / rst_n $end
$var reg 2 (" out [1:0] $end
$upscope $end
$upscope $end
$upscope $end
$scope module pe3 $end
$var wire 1 & clk $end
$var wire 16 )" in_north [15:0] $end
$var wire 16 *" in_west [15:0] $end
$var wire 1 / rst_n $end
$var wire 16 +" temp_acc [15:0] $end
$var wire 32 ," mult_result [31:0] $end
$var wire 32 -" add_result [31:0] $end
$var reg 16 ." out_east [15:0] $end
$var reg 16 /" out_south [15:0] $end
$var reg 16 0" result [15:0] $end
$scope module saturation_block $end
$var wire 1 & clk $end
$var wire 32 1" in [31:0] $end
$var wire 1 / rst_n $end
$var wire 2 2" temp_selector [1:0] $end
$var wire 2 3" selector [1:0] $end
$var wire 16 4" out [15:0] $end
$scope module reg_0 $end
$var wire 1 & clk $end
$var wire 2 5" in [1:0] $end
$var wire 1 / rst_n $end
$var reg 2 6" out [1:0] $end
$upscope $end
$upscope $end
$upscope $end
$upscope $end
$upscope $end
$scope module mux0_N $end
$var wire 1 & clk $end
$var wire 1 , en $end
$var wire 16 7" input_0 [15:0] $end
$var wire 16 8" input_1 [15:0] $end
$var wire 1 9" rst_n $end
$var reg 16 :" out [15:0] $end
$var reg 1 ;" select $end
$upscope $end
$scope module mux0_W $end
$var wire 1 & clk $end
$var wire 1 , en $end
$var wire 16 <" input_0 [15:0] $end
$var wire 16 =" input_1 [15:0] $end
$var wire 1 >" rst_n $end
$var reg 16 ?" out [15:0] $end
$var reg 1 @" select $end
$upscope $end
$scope module mux1_N $end
$var wire 1 & clk $end
$var wire 1 , en $end
$var wire 16 A" input_0 [15:0] $end
$var wire 16 B" input_1 [15:0] $end
$var wire 1 C" rst_n $end
$var reg 16 D" out [15:0] $end
$var reg 1 E" select $end
$upscope $end
$scope module mux1_W $end
$var wire 1 & clk $end
$var wire 1 , en $end
$var wire 16 F" input_0 [15:0] $end
$var wire 16 G" input_1 [15:0] $end
$var wire 1 H" rst_n $end
$var reg 16 I" out [15:0] $end
$var reg 1 J" select $end
$upscope $end
$upscope $end
$upscope $end
$enddefinitions $end
#0
$dumpvars
0J"
bx I"
xH"
bx G"
bx F"
0E"
bx D"
xC"
bx B"
bx A"
0@"
bx ?"
x>"
bx ="
bx <"
0;"
bx :"
x9"
bx 8"
bx 7"
bx 6"
bx 5"
bx 4"
bx 3"
bx 2"
bx 1"
bx 0"
bx /"
bx ."
bx -"
bx ,"
bx +"
bx *"
bx )"
bx ("
bx '"
bx &"
bx %"
bx $"
bx #"
bx ""
bx !"
bx ~
bx }
bx |
bx {
bx z
bx y
bx x
bx w
bx v
bx u
bx t
bx s
bx r
bx q
bx p
bx o
bx n
bx m
bx l
bx k
bx j
bx i
bx h
bx g
bx f
bx e
bx d
bx c
bx b
bx a
bx `
bx _
bx ^
bx ]
b111 \
bx [
bx Z
bx Y
bx X
bx W
bx V
bx U
bx T
bx S
bx R
bx Q
bx P
bx O
bx N
bx M
bx L
bx K
bx J
b1111111 I
bx H
bx G
bx F
bx E
bx D
bx C
bx B
bx A
bx @
bx ?
bx >
bx =
bx <
bx ;
bx :
bx 9
bx 8
bx 7
bx 6
bx 5
bx 4
b0 3
bx 2
b0 1
b10000000000000000000000000000011 0
0/
0.
b0 -
0,
b0 +
b0 *
b0 )
b0 (
b0 '
0&
x%
bx $
bx #
bx "
x!
$end
#5000
b0 +"
b0 4"
0C"
19"
0H"
1>"
b0 3"
b0 5"
b100000000 <"
b100000000 ="
b0 F"
b0 G"
b0 7"
b0 8"
b100000000 A"
b100000000 B"
b10 <
b10 @
b10 =
b10 >
b0 -"
b0 1"
b0 ,"
b100000000000000010000000000000000000000000000000000000000 #
b100000000000000010000000000000000000000000000000000000000 2
b100000000000000010000000000000000000000000000000000000000 6
b1000000000000000100000000 "
b1000000000000000100000000 4
b1000000000000000100000000 5
b1001 A
b1001 ?
b0 f
b0 j
b0 N
b0 d
b0 V
b0 b
b0 k
b0 R
b0 c
b0 y
b0 t
b0 x
b0 M
b0 r
b0 U
b0 p
b0 Q
b0 q
b0 )"
b0 $"
b0 ("
b0 L
b0 ""
b0 T
b0 ~
b0 *"
b0 P
b0 !"
b0 2"
b0 6"
b0 B
b0 H
b0 W
b0 K
b0 0"
b0 S
b0 ."
b0 O
b0 /"
b0 \
0!
1&
#10000
0&
1/
#15000
bx +"
bx 4"
bx 3"
bx 5"
bx L
bx ""
bx T
bx ~
bx *"
bx $"
bx ("
bx M
bx r
bx -"
bx 1"
bx ,"
bx Q
bx q
bx )"
bx t
bx x
bx0000000000000000 B
bx0000000000000000 H
bx0000000000000000 W
bx N
bx d
bx R
bx c
bx y
bx V
bx b
bx k
bx f
bx j
b0 8
b0 F
b0 Z
b0 n
b0 D"
b0 7
b0 D
b0 X
b0 |
b0 I"
1&
#20000
0&
#25000
b0 ,"
b0 Q
b0 q
b0 )"
bx U
bx p
bx P
bx !"
b0 T
b0 ~
b0 *"
bx 2"
bx 6"
bx B
bx H
bx W
bx K
bx 0"
bx O
bx /"
bx S
bx ."
1&
#30000
0&
#35000
b0 O
b0 /"
b0 S
b0 ."
1&
#40000
0&
#45000
1&
#50000
0&
1,
#55000
1C"
1H"
b0 ^
b11 =
b11 >
b11 <
b11 @
b1 \
1;"
b0 :
b0 G
b0 [
b0 `
b0 :"
1@"
b100000000 9
b100000000 E
b100000000 Y
b100000000 _
b100000000 ?"
b1100 ?
b1100 A
1&
#60000
0&
#65000
09"
0>"
b1 <
b1 @
b1 =
b1 >
b0 {
b10000000000000000 m
b110 A
b110 ?
0@"
1J"
0;"
1E"
b100000000 8
b100000000 F
b100000000 Z
b100000000 n
b100000000 D"
b0 R
b0 c
b0 y
b100000000 V
b100000000 b
b100000000 k
b10 \
1&
#70000
0&
#75000
0C"
0H"
b0 =
b0 >
b0 <
b0 @
b11 \
b0 P
b0 !"
b100000000 Q
b100000000 q
b100000000 )"
b100000000 U
b100000000 p
0E"
0J"
b0 9
b0 E
b0 Y
b0 _
b0 ?"
b11 ?
b11 A
1&
#80000
0&
#85000
b0 8
b0 F
b0 Z
b0 n
b0 D"
b0 m
b0 V
b0 b
b0 k
b100000000 O
b100000000 /"
b100 \
1&
#90000
0&
#95000
b0 $
b0 ;
b0 C
b0 J
b0 I
0%
1.
b1 '
b0 \
1!
b0 Q
b0 q
b0 )"
b0 U
b0 p
1&
#100000
0&
#105000
b0 O
b0 /"
0!
b1 \
0/
1&
#110000
0&
#115000
b0 +"
b0 4"
b0 z
b0 &"
b0 l
b0 v
b0 ]
b0 h
b0 3"
b0 5"
b0 %"
b0 '"
b0 u
b0 w
b0 g
b0 i
19"
1>"
b0 -"
b0 1"
b0 }
b0 #"
b0 o
b0 s
b0 a
b0 e
b10 =
b10 >
b10 <
b10 @
1/
b0 \
b0 K
b0 0"
b0 2"
b0 6"
b0 L
b0 ""
b0 $"
b0 ("
b0 M
b0 r
b0 t
b0 x
b0 B
b0 H
b0 W
b0 N
b0 d
b0 f
b0 j
b1001 ?
b1001 A
1&
#120000
0&
#125000
1C"
1H"
b11 <
b11 @
b11 =
b11 >
b1100 A
b1100 ?
1@"
b100000000 9
b100000000 E
b100000000 Y
b100000000 _
b100000000 ?"
1;"
b1 \
1&
#130000
0&
#135000
b100000000 l
b100000000 v
09"
0>"
b1 =
b1 >
b1 <
b1 @
b10 \
b10000000000000000 o
b10000000000000000 s
b10000000000000000 m
b100000000 V
b100000000 b
b100000000 k
1E"
b100000000 8
b100000000 F
b100000000 Z
b100000000 n
b100000000 D"
0;"
1J"
0@"
b110 ?
b110 A
1&
#140000
0&
#145000
b1000000000 l
b1000000000 v
0C"
0H"
b0 <
b0 @
b0 =
b0 >
b11 A
b11 ?
b0 9
b0 E
b0 Y
b0 _
b0 ?"
0J"
0E"
b100000000000000000 o
b100000000000000000 s
b10000000000000000000000000000000000000000 B
b10000000000000000000000000000000000000000 H
b10000000000000000000000000000000000000000 W
b100000000 M
b100000000 r
b100000000 Q
b100000000 q
b100000000 )"
b100000000 U
b100000000 p
b11 \
1&
#150000
0&
#155000
b100 \
b100000000 O
b100000000 /"
b100000000000000000000000000000000000000000 B
b100000000000000000000000000000000000000000 H
b100000000000000000000000000000000000000000 W
b1000000000 M
b1000000000 r
b0 V
b0 b
b0 k
b100000000000000000 o
b100000000000000000 s
b0 m
b0 8
b0 F
b0 Z
b0 n
b0 D"
1&
#160000
0&
#165000
b10 '
b1 )
b1 3
b1 (
b1 1
b1 I
b0 Q
b0 q
b0 )"
b0 U
b0 p
b0 \
1!
1&
#170000
0&
#175000
b100000000 8"
b0 A"
b0 B"
b0 <"
b0 ="
0/
0!
b1 \
b0 O
b0 /"
b10000000000000000000000000000000000000000 "
b10000000000000000000000000000000000000000 4
b10000000000000000000000000000000000000000 5
b0 #
b0 2
b0 6
1&
#180000
0&
#185000
b0 l
b0 v
19"
1>"
b10 <
b10 @
b10 =
b10 >
b1001 A
b1001 ?
b0 o
b0 s
b0 B
b0 H
b0 W
b0 M
b0 r
b0 \
1/
1&
#190000
0&
#195000
1C"
1H"
b11 =
b11 >
b11 <
b11 @
b1 \
1;"
1@"
b1100 ?
b1100 A
1&
#200000
0&
#205000
09"
0>"
b1 <
b1 @
b1 =
b1 >
b110 A
b110 ?
0@"
1J"
0;"
b100000000 :
b100000000 G
b100000000 [
b100000000 `
b100000000 :"
1E"
b10 \
1&
#210000
0&
#215000
0C"
0H"
b0 =
b0 >
b0 <
b0 @
b11 \
b100000000 R
b100000000 c
b100000000 y
0E"
b0 :
b0 G
b0 [
b0 `
b0 :"
0J"
b11 ?
b11 A
1&
#220000
0&
#225000
b0 R
b0 c
b0 y
b100000000 P
b100000000 !"
b100 \
1&
#230000
0&
#235000
b10 I
b10 )
b10 3
b10 (
b10 1
b11 '
b0 \
1!
b0 P
b0 !"
1&
#240000
0&
#245000
b100000000 <"
b100000000 ="
b100000000 F"
b100000000 7"
b100000000 B"
b100000000000000010000000000000001000000000000000000000000 #
b100000000000000010000000000000001000000000000000000000000 2
b100000000000000010000000000000001000000000000000000000000 6
b100000000000000010000000000000000000000000000000100000000 "
b100000000000000010000000000000000000000000000000100000000 4
b100000000000000010000000000000000000000000000000100000000 5
0!
b1 \
0/
1&
#250000
0&
#255000
19"
1>"
b10 =
b10 >
b10 <
b10 @
1/
b0 \
b1001 ?
b1001 A
1&
#260000
0&
#265000
b100000000 ]
b100000000 h
1C"
1H"
b11 <
b11 @
b11 =
b11 >
b1100 A
b1100 ?
1@"
b10000000000000000 a
b10000000000000000 e
b10000000000000000 ^
b100000000 9
b100000000 E
b100000000 Y
b100000000 _
b100000000 ?"
1;"
b100000000 :
b100000000 G
b100000000 [
b100000000 `
b100000000 :"
b1 \
1&
#270000
0&
#275000
b1000000000 ]
b1000000000 h
b100000000 z
b100000000 &"
09"
0>"
b1 =
b1 >
b1 <
b1 @
b10 \
b100000000000000000 a
b100000000000000000 e
b100000000000000000000000000000000000000000000000000000000 B
b100000000000000000000000000000000000000000000000000000000 H
b100000000000000000000000000000000000000000000000000000000 W
b100000000 N
b100000000 d
b10000000000000000 }
b10000000000000000 #"
b10000000000000000 {
b100000000 R
b100000000 c
b100000000 y
b100000000 V
b100000000 b
b100000000 k
1E"
0;"
1J"
b100000000 7
b100000000 D
b100000000 X
b100000000 |
b100000000 I"
0@"
b110 ?
b110 A
1&
#280000
0&
#285000
b100000000 l
b100000000 v
0C"
0H"
b0 <
b0 @
b0 =
b0 >
b11 A
b11 ?
b0 9
b0 E
b0 Y
b0 _
b0 ?"
0J"
b0 {
b0 7
b0 D
b0 X
b0 |
b0 I"
b0 ^
b0 :
b0 G
b0 [
b0 `
b0 :"
0E"
b10000000000000000 o
b10000000000000000 s
b10000000000000000 m
b100000000 8
b100000000 F
b100000000 Z
b100000000 n
b100000000 D"
b100000000000000000 a
b100000000000000000 e
b1000000000 N
b1000000000 d
b100000000 U
b100000000 p
b10000000000000000 }
b10000000000000000 #"
b1000000000000000000000000000000001000000000000000000000000 B
b1000000000000000000000000000000001000000000000000000000000 H
b1000000000000000000000000000000001000000000000000000000000 W
b100000000 L
b100000000 ""
b100000000 P
b100000000 !"
b100000000 T
b100000000 ~
b100000000 *"
b11 \
1&
#290000
0&
#295000
b100 \
b100000000 S
b100000000 ."
b0 T
b0 ~
b0 *"
b1000000000000000010000000000000001000000000000000000000000 B
b1000000000000000010000000000000001000000000000000000000000 H
b1000000000000000010000000000000001000000000000000000000000 W
b100000000 M
b100000000 r
b0 -"
b0 1"
b0 ,"
b100000000 Q
b100000000 q
b100000000 )"
b0 R
b0 c
b0 y
b0 V
b0 b
b0 k
b10000000000000000 o
b10000000000000000 s
b0 m
b0 8
b0 F
b0 Z
b0 n
b0 D"
1&
#300000
0&
#305000
b0 '
b11 )
b11 3
b11 (
b11 1
b11 I
b0 Q
b0 q
b0 )"
b0 U
b0 p
b0 P
b0 !"
b100000000 O
b100000000 /"
b0 S
b0 ."
b0 \
1!
1&
#310000
0&
#315000
b0 7"
b0 8"
b100000000 A"
b0 <"
b0 F"
b100000000 G"
0/
0!
b1 \
b0 O
b0 /"
b1000000000000000100000000 "
b1000000000000000100000000 4
b1000000000000000100000000 5
b10000000000000000000000000000000100000000 #
b10000000000000000000000000000000100000000 2
b10000000000000000000000000000000100000000 6
1&
#320000
0&
#325000
b0 ]
b0 h
b0 l
b0 v
b0 z
b0 &"
19"
1>"
b10 <
b10 @
b10 =
b10 >
b1001 A
b1001 ?
b0 a
b0 e
b0 N
b0 d
b0 o
b0 s
b0 M
b0 r
b0 }
b0 #"
b0 B
b0 H
b0 W
b0 L
b0 ""
b0 \
1/
1&
#330000
0&
#335000
1C"
1H"
b11 =
b11 >
b11 <
b11 @
b1 \
1;"
1@"
b1100 ?
b1100 A
1&
#340000
0&
#345000
09"
0>"
b1 <
b1 @
b1 =
b1 >
b110 A
b110 ?
0@"
b100000000 9
b100000000 E
b100000000 Y
b100000000 _
b100000000 ?"
1J"
0;"
1E"
b100000000 8
b100000000 F
b100000000 Z
b100000000 n
b100000000 D"
b10 \
1&
#350000
0&
#355000
b100000000 l
b100000000 v
0C"
0H"
b0 =
b0 >
b0 <
b0 @
b11 \
b100000000 Q
b100000000 q
b100000000 )"
b10000000000000000 o
b10000000000000000 s
b10000000000000000 m
b100000000 V
b100000000 b
b100000000 k
0E"
0J"
b100000000 7
b100000000 D
b100000000 X
b100000000 |
b100000000 I"
b0 9
b0 E
b0 Y
b0 _
b0 ?"
b11 ?
b11 A
1&
#360000
0&
#365000
b100000000 +"
b100000000 4"
b0 7
b0 D
b0 X
b0 |
b0 I"
b0 8
b0 F
b0 Z
b0 n
b0 D"
b0 m
b0 V
b0 b
b0 k
b10000000000000000 o
b10000000000000000 s
b10000000000000000000000000000000000000000 B
b10000000000000000000000000000000000000000 H
b10000000000000000000000000000000000000000 W
b100000000 M
b100000000 r
b100000000 U
b100000000 p
b10000000000000000 -"
b10000000000000000 1"
b10000000000000000 ,"
b100000000 T
b100000000 ~
b100000000 *"
b100000000 O
b100000000 /"
b100 \
1&
#370000
0&
#375000
b100 I
b0 )
b0 3
b0 (
b0 1
b1 '
b0 \
1!
b10000000000000000000000000000000100000000 B
b10000000000000000000000000000000100000000 H
b10000000000000000000000000000000100000000 W
b100000000 K
b100000000 0"
b100000000 S
b100000000 ."
b0 T
b0 ~
b0 *"
b10000000000000000 -"
b10000000000000000 1"
b0 ,"
b0 Q
b0 q
b0 )"
b0 U
b0 p
1&
#380000
0&
#385000
b100000000 <"
b0 G"
b100000000000000010000000000000000000000000000000000000000 #
b100000000000000010000000000000000000000000000000000000000 2
b100000000000000010000000000000000000000000000000000000000 6
b0 O
b0 /"
b0 S
b0 ."
0!
b1 \
0/
1&
#390000
0&
#395000
b0 +"
b0 4"
b0 l
b0 v
19"
1>"
b10 =
b10 >
b10 <
b10 @
1/
b0 \
b0 -"
b0 1"
b0 K
b0 0"
b0 o
b0 s
b0 B
b0 H
b0 W
b0 M
b0 r
b1001 ?
b1001 A
1&
#400000
0&
#405000
1C"
1H"
b11 <
b11 @
b11 =
b11 >
b1100 A
b1100 ?
1@"
b100000000 9
b100000000 E
b100000000 Y
b100000000 _
b100000000 ?"
1;"
b1 \
1&
#410000
0&
#415000
b100000000 l
b100000000 v
09"
0>"
b1 =
b1 >
b1 <
b1 @
b10 \
b10000000000000000 o
b10000000000000000 s
b10000000000000000 m
b100000000 V
b100000000 b
b100000000 k
1E"
b100000000 8
b100000000 F
b100000000 Z
b100000000 n
b100000000 D"
0;"
1J"
0@"
b110 ?
b110 A
1&
#420000
0&
#425000
b1000000000 l
b1000000000 v
0C"
0H"
b0 <
b0 @
b0 =
b0 >
b11 A
b11 ?
b0 9
b0 E
b0 Y
b0 _
b0 ?"
0J"
0E"
b100000000000000000 o
b100000000000000000 s
b10000000000000000000000000000000000000000 B
b10000000000000000000000000000000000000000 H
b10000000000000000000000000000000000000000 W
b100000000 M
b100000000 r
b100000000 Q
b100000000 q
b100000000 )"
b100000000 U
b100000000 p
b11 \
1&
#430000
0&
#435000
b100 \
b100000000 O
b100000000 /"
b100000000000000000000000000000000000000000 B
b100000000000000000000000000000000000000000 H
b100000000000000000000000000000000000000000 W
b1000000000 M
b1000000000 r
b0 V
b0 b
b0 k
b100000000000000000 o
b100000000000000000 s
b0 m
b0 8
b0 F
b0 Z
b0 n
b0 D"
1&
#440000
0&
#445000
b1 *
b1 -
b10 '
b1 )
b1 3
b1 (
b1 1
b0 I
b1000000000000001000000000000000001000000000000000100000000 $
b1000000000000001000000000000000001000000000000000100000000 ;
b1000000000000001000000000000000001000000000000000100000000 C
b1000000000000001000000000000000001000000000000000100000000 J
1%
b0 Q
b0 q
b0 )"
b0 U
b0 p
b0 \
1!
1&
#450000
0&
#455000
b100000000 8"
b0 A"
b0 B"
b0 <"
b0 ="
0/
0!
b1 \
b0 O
b0 /"
b10000000000000000000000000000000000000000 "
b10000000000000000000000000000000000000000 4
b10000000000000000000000000000000000000000 5
b0 #
b0 2
b0 6
1&
#460000
0&
#465000
b0 l
b0 v
19"
1>"
b10 <
b10 @
b10 =
b10 >
b1001 A
b1001 ?
b0 o
b0 s
b0 B
b0 H
b0 W
b0 M
b0 r
b0 \
1/
1&
#470000
0&
#475000
1C"
1H"
b11 =
b11 >
b11 <
b11 @
b1 \
1;"
1@"
b1100 ?
b1100 A
1&
#480000
0&
#485000
09"
0>"
b1 <
b1 @
b1 =
b1 >
b110 A
b110 ?
0@"
1J"
0;"
b100000000 :
b100000000 G
b100000000 [
b100000000 `
b100000000 :"
1E"
b10 \
1&
#490000
0&
#495000
0C"
0H"
b0 =
b0 >
b0 <
b0 @
b11 \
b100000000 R
b100000000 c
b100000000 y
0E"
b0 :
b0 G
b0 [
b0 `
b0 :"
0J"
b11 ?
b11 A
1&
#500000
0&
#505000
b0 R
b0 c
b0 y
b100000000 P
b100000000 !"
b100 \
1&
#510000
0&
#515000
b1 I
0%
0.
b110 )
b110 3
b10 (
b10 1
b11 '
b0 \
1!
b0 P
b0 !"
1&
#520000
0&
#525000
b100000000 <"
b100000000 ="
b100000000 F"
b100000000 B"
b100000000000000010000000000000001000000000000000000000000 #
b100000000000000010000000000000001000000000000000000000000 2
b100000000000000010000000000000001000000000000000000000000 6
b10000000000000000000000000000000100000000 "
b10000000000000000000000000000000100000000 4
b10000000000000000000000000000000100000000 5
0!
b1 \
0/
1&
#530000
0&
#535000
19"
1>"
b10 =
b10 >
b10 <
b10 @
1/
b0 \
b1001 ?
b1001 A
1&
#540000
0&
#545000
1C"
1H"
b11 <
b11 @
b11 =
b11 >
b1100 A
b1100 ?
1@"
b100000000 9
b100000000 E
b100000000 Y
b100000000 _
b100000000 ?"
1;"
b1 \
1&
#550000
0&
#555000
b100000000 ]
b100000000 h
09"
0>"
b1 =
b1 >
b1 <
b1 @
b10 \
b100000000 V
b100000000 b
b100000000 k
1E"
0;"
b10000000000000000 a
b10000000000000000 e
b10000000000000000 ^
b100000000 :
b100000000 G
b100000000 [
b100000000 `
b100000000 :"
1J"
b100000000 7
b100000000 D
b100000000 X
b100000000 |
b100000000 I"
0@"
b110 ?
b110 A
1&
#560000
0&
#565000
b100000000 l
b100000000 v
0C"
0H"
b0 <
b0 @
b0 =
b0 >
b11 A
b11 ?
b0 9
b0 E
b0 Y
b0 _
b0 ?"
0J"
b0 7
b0 D
b0 X
b0 |
b0 I"
b0 ^
b0 :
b0 G
b0 [
b0 `
b0 :"
0E"
b10000000000000000 o
b10000000000000000 s
b10000000000000000 m
b100000000 8
b100000000 F
b100000000 Z
b100000000 n
b100000000 D"
b10000000000000000 a
b10000000000000000 e
b100000000000000000000000000000000000000000000000000000000 B
b100000000000000000000000000000000000000000000000000000000 H
b100000000000000000000000000000000000000000000000000000000 W
b100000000 N
b100000000 d
b0 }
b0 #"
b0 {
b100000000 R
b100000000 c
b100000000 y
b100000000 U
b100000000 p
b100000000 T
b100000000 ~
b100000000 *"
b11 \
1&
#570000
0&
#575000
b100 \
b100000000 S
b100000000 ."
b100000000 P
b100000000 !"
b0 T
b0 ~
b0 *"
b100000000000000010000000000000000000000000000000000000000 B
b100000000000000010000000000000000000000000000000000000000 H
b100000000000000010000000000000000000000000000000000000000 W
b100000000 M
b100000000 r
b0 -"
b0 1"
b0 ,"
b100000000 Q
b100000000 q
b100000000 )"
b0 R
b0 c
b0 y
b0 V
b0 b
b0 k
b10000000000000000 o
b10000000000000000 s
b0 m
b0 8
b0 F
b0 Z
b0 n
b0 D"
1&
#580000
0&
#585000
b0 '
b111 )
b111 3
b11 (
b11 1
1.
b0 $
b0 ;
b0 C
b0 J
b0 I
b0 Q
b0 q
b0 )"
b0 U
b0 p
b0 P
b0 !"
b100000000 O
b100000000 /"
b0 S
b0 ."
b0 \
1!
1&
#590000
0&
#595000
b100000000 7"
b0 8"
b100000000 A"
b0 B"
b0 <"
b0 F"
b100000000 G"
0/
0!
b1 \
b0 O
b0 /"
b100000000000000000000000000000001000000000000000000000000 "
b100000000000000000000000000000001000000000000000000000000 4
b100000000000000000000000000000001000000000000000000000000 5
b10000000000000000000000000000000100000000 #
b10000000000000000000000000000000100000000 2
b10000000000000000000000000000000100000000 6
1&
#600000
0&
#605000
b0 ]
b0 h
b0 l
b0 v
19"
1>"
b10 <
b10 @
b10 =
b10 >
b1001 A
b1001 ?
b0 a
b0 e
b0 N
b0 d
b0 o
b0 s
b0 B
b0 H
b0 W
b0 M
b0 r
b0 \
1/
1&
#610000
0&
#615000
1C"
1H"
b11 =
b11 >
b11 <
b11 @
b1 \
1;"
b100000000 :
b100000000 G
b100000000 [
b100000000 `
b100000000 :"
1@"
b1100 ?
b1100 A
1&
#620000
0&
#625000
09"
0>"
b1 <
b1 @
b1 =
b1 >
b110 A
b110 ?
0@"
b100000000 9
b100000000 E
b100000000 Y
b100000000 _
b100000000 ?"
1J"
0;"
b0 :
b0 G
b0 [
b0 `
b0 :"
1E"
b100000000 8
b100000000 F
b100000000 Z
b100000000 n
b100000000 D"
b100000000 R
b100000000 c
b100000000 y
b10 \
1&
#630000
0&
#635000
0C"
0H"
b0 =
b0 >
b0 <
b0 @
b11 \
b100000000 P
b100000000 !"
b100000000 Q
b100000000 q
b100000000 )"
b0 R
b0 c
b0 y
b100000000 V
b100000000 b
b100000000 k
0E"
b0 8
b0 F
b0 Z
b0 n
b0 D"
0J"
b0 }
b0 #"
b0 {
b100000000 7
b100000000 D
b100000000 X
b100000000 |
b100000000 I"
b0 9
b0 E
b0 Y
b0 _
b0 ?"
b11 ?
b11 A
1&
#640000
0&
#645000
b0 7
b0 D
b0 X
b0 |
b0 I"
b0 V
b0 b
b0 k
b0 Q
b0 q
b0 )"
b100000000 U
b100000000 p
b0 P
b0 !"
b0 -"
b0 1"
b0 ,"
b100000000 T
b100000000 ~
b100000000 *"
b100000000 O
b100000000 /"
b100 \
1&
#650000
0&
